<?xml version="1.0" standalone="no"?>
<!DOCTYPE svg PUBLIC "-//W3C//DTD SVG 20010904//EN" "http://www.w3.org/TR/2001/REC-SVG-20010904/DTD/svg10.dtd">
<!-- Created using Karbon, part of Calligra: http://www.calligra.org/karbon -->
<svg xmlns="http://www.w3.org/2000/svg" xmlns:xlink="http://www.w3.org/1999/xlink" width="595.277pt" height="595.277pt">
<defs/>
<g id="layer0">
  <path id="shape0" transform="translate(101, 368.705)" fill="#f6d2a2" d="M5.18106 34.7454C6.25198 56.8063 28.3129 46.5255 38.1654 39.6716C47.5895 33.0319 50.3739 38.6007 51.2306 25.7497C51.8731 17.1823 52.7299 8.82914 52.3015 0.261786C37.9512 -1.02332 22.5299 2.40362 10.7498 10.971C4.53851 15.2547 -6.59906 29.3908 5.18106 34.7454"/>
  <path id="shape1" transform="translate(508.847, 674.607)" fill="#f6d2a2" d="M37.0538 0C53.9743 10.495 85.031 42.1942 59.5431 57.6155C35.1262 79.8906 21.4184 32.9843 0 26.5588C9.2099 13.922 20.7758 2.35602 37.0538 0L37.0538 0Z"/>
  <path id="shape2" transform="translate(162.444, 680.622)" fill="#f6d2a2" d="M80.601 29.7534C60.6819 32.752 49.5443 50.7434 32.838 59.9533C17.2026 69.1632 11.2054 56.9547 9.92033 54.3845C7.56431 53.3136 7.77849 55.4555 3.92318 51.6001C-10.6413 28.6825 18.916 11.9761 34.3373 0.624384C55.7557 -3.65929 69.2493 14.9747 80.601 29.7534L80.601 29.7534Z"/>
  <path id="shape3" transform="translate(592.691, 365.92)" fill="#f6d2a2" d="M47.2358 34.7454C46.1648 56.8063 24.1039 46.5255 14.2514 39.6716C4.82735 33.0319 2.04296 38.6007 1.18622 25.7497C0.54367 17.1823 -0.313065 8.82914 0.115301 0.261786C14.4656 -1.02332 29.8869 2.40362 41.667 10.971C47.6641 15.2547 59.0159 29.3908 47.2358 34.7454"/>
  <path id="shape4" transform="translate(116.351, 1.85531)" fill="#69d7e2" d="M465.104 129.795C541.568 102.808 481.811 -1.92765 415.199 44.3361C371.506 6.85388 311.32 0 248.136 0C186.237 4.92623 127.336 16.278 86.213 52.2609C19.816 9.42409 -41.4406 112.232 36.5223 138.149C14.6756 222.965 39.5209 309.496 36.094 395.812C32.8812 473.346 12.5337 577.225 55.5847 646.835C92.2101 706.378 171.03 727.583 235.928 729.939C318.817 732.937 419.269 712.59 459.535 632.271C498.089 555.807 487.379 460.495 482.453 378.035C477.527 294.717 486.737 210.114 465.104 129.795Z"/>
  <path id="shape5" transform="translate(99.133, -0.714901)" fill="#000000" d="M546.577 388.315C544.435 383.817 540.366 378.677 536.511 375.893C526.658 368.825 514.021 364.969 500.956 364.541C500.528 351.262 500.099 336.697 500.099 318.277L500.099 301.571C499.885 248.882 499.243 225.75 496.244 196.835C493.888 174.131 490.247 153.141 485.106 133.437C502.455 126.797 513.807 115.873 518.305 101.737C522.589 88.6721 520.447 73.8934 513.164 60.8282C505.668 47.9772 493.674 38.3389 479.752 34.4836C464.759 30.4141 448.481 33.4127 432.846 43.9077C418.924 32.1276 402.86 23.1319 384.868 16.278C352.955 4.49786 315.901 0 265.568 0L265.568 2.14184L265.354 0C211.594 4.28368 171.755 12.6368 138.771 28.7006C125.492 35.1262 113.712 42.8368 103.431 51.8325C87.5812 41.98 71.089 39.624 55.8819 44.3361C41.7458 48.6197 29.5373 58.6864 22.2551 71.7516C14.9728 84.8168 13.2594 99.8097 18.1856 112.661C23.1118 125.512 34.4636 135.578 51.3841 141.79C46.0295 163.422 43.2451 186.34 42.8167 211.614C42.3884 236.245 43.4593 255.95 47.3146 300.5C50.099 333.698 51.1699 348.906 51.5983 367.325C37.0338 366.683 22.4693 370.538 11.5459 378.463C7.69057 381.247 3.4069 386.173 1.47924 390.886C-1.30515 396.883 -0.234228 402.237 5.33455 405.45C6.19129 415.731 11.9743 420.443 20.7558 419.586C27.1813 418.944 34.8919 415.517 41.5316 410.805C43.0309 409.734 44.5302 408.877 46.0295 408.234C46.672 408.02 47.1004 407.806 47.743 407.592C47.743 407.592 49.0281 407.164 49.4564 406.949C50.099 406.735 50.7415 406.521 51.1699 406.093C50.7415 416.159 49.8848 426.654 47.9571 450.643C45.8153 477.63 44.7444 492.409 44.316 508.901C42.3884 570.157 49.6706 614.708 71.5174 650.048C78.3712 661.186 86.7244 671.038 96.5769 680.034C94.6492 681.319 86.5102 687.316 83.94 689.244C74.9443 696.098 68.733 701.88 65.0918 708.306C60.3798 716.659 60.3798 725.012 65.7344 733.794L65.9486 734.008L66.1628 734.222C68.5188 736.578 69.8039 737.221 71.5174 737.221L71.7315 737.221L72.1599 737.221L72.1599 737.221C72.3741 737.649 72.5883 737.863 72.8025 738.292C73.445 739.363 74.0876 740.219 74.7301 741.076C80.0847 747.287 87.5812 748.787 97.6478 742.79C103.002 740.005 106.858 736.792 114.997 729.939C115.211 729.724 115.211 729.724 115.425 729.51C128.49 718.373 134.916 714.303 144.554 712.804L147.981 712.161C149.266 712.804 150.551 713.232 152.05 713.875C182.465 726.083 217.805 732.723 253.574 734.008C299.837 735.722 344.388 729.939 382.084 716.231C392.151 712.59 401.575 708.306 410.57 703.594C416.139 705.736 420.851 710.234 429.847 720.729C430.275 721.157 430.275 721.157 430.49 721.585C430.918 722.014 430.918 722.228 431.132 722.442C431.56 723.085 432.203 723.513 432.631 724.156C439.699 732.509 444.411 736.578 449.766 738.934C456.834 741.933 463.688 740.434 470.756 734.008C483.179 726.297 484.035 714.303 475.896 700.595C470.114 690.957 460.047 680.89 450.623 674.465C461.76 663.542 471.399 650.476 478.895 635.698C499.457 594.574 507.382 546.597 506.953 484.912C506.739 463.065 505.882 444.003 503.526 407.592L503.526 406.521C504.597 406.949 505.668 407.592 506.739 408.449C513.379 412.946 521.089 416.588 527.515 417.23C536.296 418.087 542.079 413.375 542.936 403.094L542.936 403.094C548.291 399.667 549.362 394.312 546.577 388.315ZM478.467 38.9815C491.318 42.4084 502.455 51.4041 509.309 63.3984C516.163 75.3927 518.091 88.8863 514.235 100.881C510.166 113.517 499.885 123.584 483.821 129.581C480.609 118.015 476.753 106.664 472.47 95.7402C478.681 90.3856 481.679 83.7459 476.753 74.3218C471.827 64.8977 463.26 63.8268 454.478 66.6112C448.909 59.3289 442.698 52.9034 436.272 46.9063C450.409 37.9105 464.973 35.3403 478.467 38.9815ZM21.8267 111.376C17.3288 99.8097 18.8281 86.1019 25.682 74.1076C32.5359 62.1133 43.6735 52.6892 56.9529 48.8339C70.6606 44.7644 85.4393 46.6921 100.004 55.2594C91.6506 62.7559 84.1542 71.3232 77.7287 80.7473C66.5911 74.9643 55.2394 73.8934 48.8139 85.6735C42.1742 98.3104 49.8848 106.235 60.8082 112.232C59.3089 115.873 57.8096 119.729 56.5245 123.584C55.0252 128.296 53.5259 133.222 52.2408 138.149C36.6054 132.151 26.3246 122.942 21.8267 111.376ZM47.743 403.308C47.5288 403.308 46.2437 403.737 46.2437 403.951C45.6011 404.165 44.9586 404.379 44.316 404.807C42.6025 405.45 40.8891 406.521 39.1756 407.806C33.1785 412.09 25.8962 415.302 20.3274 415.731C13.9019 416.373 10.2608 413.589 9.61823 405.878C14.1161 404.379 16.0437 403.308 17.7572 400.738L14.3303 398.168C13.0452 399.881 11.7601 400.524 7.90476 401.809L7.90476 401.809C7.69057 401.809 7.69057 401.809 7.47639 402.023C4.04945 400.095 3.4069 397.097 5.33455 392.813C7.04802 388.958 10.9033 384.46 14.1161 382.104C24.3969 374.608 38.1047 370.966 51.8124 371.823C51.8124 377.178 52.0266 382.532 51.8124 387.673C51.8124 388.315 51.8124 388.744 51.5983 389.386C51.3841 392.385 51.3841 393.67 51.1699 395.169L51.1699 395.169C50.5273 401.381 50.099 402.237 47.743 403.308ZM112.426 726.512C112.212 726.726 112.212 726.726 111.998 726.94C104.073 733.794 100.218 736.578 95.2918 739.363C87.1528 744.289 81.584 743.218 77.7287 738.506C77.0861 737.863 76.6578 737.007 76.2294 736.364C76.0152 736.15 75.801 735.722 75.5869 735.507C75.5869 735.507 75.5869 735.507 75.5869 735.293C76.0152 731.438 77.5145 728.653 81.3698 722.656C81.584 722.442 81.584 722.442 81.584 722.228C83.94 718.801 85.0109 716.873 86.0819 714.517L82.2266 712.804C81.3698 714.732 80.2989 716.445 78.1571 719.872C77.9429 720.086 77.9429 720.086 77.9429 720.3C74.0876 725.869 72.3741 729.296 71.5174 733.151L71.3032 733.151C71.3032 733.151 71.3032 733.151 71.089 733.151L70.6606 733.151C70.2323 732.937 69.5897 732.509 68.733 731.652C60.3798 718.373 67.0195 707.021 85.8677 692.885C88.2237 691.171 96.1485 685.603 98.2903 683.889C98.7187 683.889 99.1471 683.675 99.5754 683.461C111.141 693.313 124.635 701.88 139.628 708.949L139.628 708.949C139.628 709.163 139.842 709.377 140.056 709.591C131.275 711.733 124.421 716.231 112.426 726.512ZM472.041 703.166C478.681 714.303 478.467 723.299 470.114 729.51C469.471 728.225 469.043 726.726 468.186 724.584C468.186 724.37 468.186 724.37 467.972 724.156C464.973 716.017 463.045 712.59 459.404 708.734L456.406 711.733C459.619 714.732 461.118 717.944 464.116 725.441C464.116 725.655 464.116 725.655 464.331 725.869C465.401 728.653 466.044 730.367 466.687 731.866C461.118 736.578 456.192 737.435 451.051 735.079C446.553 733.151 442.27 729.082 435.416 721.371C434.987 720.943 434.559 720.3 434.131 719.658C433.916 719.444 433.702 719.229 433.488 718.801C433.06 718.373 433.06 718.373 432.846 717.944C424.921 708.734 420.209 703.808 415.068 701.024C427.063 694.17 437.772 686.459 447.41 677.464C456.406 684.103 466.472 693.956 472.041 703.166ZM475.04 633.77C456.62 670.824 424.064 696.954 380.37 712.804C343.102 726.297 298.981 731.866 253.359 730.153C174.754 727.368 106.644 699.953 74.7301 648.12C53.3117 613.637 46.2437 569.729 48.1713 509.329C48.8139 492.837 49.6706 478.058 51.8124 451.071C54.1685 420.657 54.811 411.876 55.4536 398.168C55.8819 388.315 55.8819 378.249 55.6678 367.539C55.2394 348.691 54.1685 333.698 51.3841 300.072C47.5288 255.521 46.4579 236.031 46.8862 211.614C47.5288 179.486 51.8124 151.214 60.8082 124.441C75.3727 80.9615 102.146 51.6183 140.699 32.5559C173.041 16.7063 212.236 8.56735 265.568 4.28368C315.473 4.28368 351.884 8.78154 383.369 20.3475C421.065 34.2694 449.124 58.6864 468.4 96.1686C480.823 126.583 488.105 159.353 491.96 197.049C494.959 225.75 495.601 248.882 495.816 301.357L495.816 318.063C496.03 343.979 496.458 362.185 497.529 380.391C497.957 387.459 498.172 390.457 499.243 407.378C501.599 443.789 502.455 462.637 502.669 484.484C503.098 545.955 495.387 593.289 475.04 633.77ZM540.58 399.239L540.58 399.239C540.366 399.239 540.152 399.025 539.937 399.025C536.082 397.739 534.797 396.883 533.512 395.383L530.085 397.954C532.013 400.524 533.94 401.595 538.224 403.094C537.367 410.805 533.726 413.589 527.515 412.946C521.946 412.518 514.664 409.091 508.667 405.022C506.953 403.737 505.24 402.88 503.526 402.023C503.312 402.023 503.098 401.809 502.884 401.809C502.027 390.029 502.027 387.03 501.599 380.819C501.384 376.964 501.17 373.108 500.956 369.253C512.95 369.467 524.73 373.108 533.726 379.748C536.939 382.104 540.794 386.602 542.508 390.457C544.65 394.098 544.221 397.311 540.58 399.239Z"/>
  <g id="group0" transform="translate(108.352, 97.0393)" fill="none">
   <path id="shape6" transform="translate(259.469, 117.867)" fill="#ffffff" d="M29.1368 7.83589C29.3509 18.7593 31.4928 30.7536 29.5651 42.3195C26.5665 47.8883 20.9978 48.5308 16.0715 50.6727C9.21765 49.6017 3.43469 45.1039 0.6503 38.6784C-1.06317 25.6132 1.07867 13.1905 1.72122 0.125274C1.72122 -0.303094 9.86021 0.339458 17.1425 2.4813C23.3538 4.40895 29.1368 7.62171 29.1368 7.83589Z"/>
   <path id="shape7" transform="translate(226.598, 117.896)" fill="#ffffff" d="M1.39398 8.66412C-4.60317 31.3676 9.31878 68.4214 32.2365 38.0073C30.523 25.1563 32.4506 12.7336 33.0932 0.0967692C33.3074 -0.97415 1.60816 7.16484 1.39398 8.66412Z"/>
   <path id="shape8" transform="translate(224.195, 111.781)" fill="#000000" d="M66.9813 23.9886C66.5529 17.5631 66.3387 14.9929 66.3387 11.7801L66.3387 10.2808L64.8394 9.85246L37.8523 1.49929L37.8523 0L35.0679 0.642552L34.8537 0.642552L34.8537 0.856735L4.4396 8.56735L3.36868 8.78154L2.94031 9.85246C-1.77173 21.2042 -0.700816 38.3389 5.29633 48.8339C12.1502 60.8282 23.2878 61.0424 34.6395 47.3346C37.8523 53.546 43.8494 57.8296 50.7033 58.9006L51.3459 58.9006L51.9884 58.6864C52.8451 58.258 53.7019 58.0438 55.2012 57.4013C55.4154 57.4013 55.4154 57.4013 55.6295 57.1871C61.8409 55.0453 64.4111 53.3318 66.5529 49.2623L66.7671 49.0481L66.7671 48.6197C67.4097 44.7644 67.6238 40.6949 67.6238 36.1971C67.6238 32.9843 67.4097 29.9857 66.9813 23.9886ZM32.7119 16.0638C32.4977 19.9191 32.2835 21.4184 32.0693 23.5602C31.6409 31.485 31.6409 37.4822 32.2835 43.4793C22.2169 56.3304 14.2921 56.3304 8.93746 46.6921C3.79705 37.6964 2.72613 22.4893 6.58144 12.4227L33.5686 5.56878C33.3544 8.35317 33.1402 11.1376 32.7119 16.0638ZM62.6976 47.763C61.1983 50.3332 59.2707 51.6183 54.1303 53.3318C53.9161 53.3318 53.9161 53.3318 53.7019 53.546C52.4168 53.9743 51.56 54.4027 50.9175 54.6169C45.1345 53.546 40.2083 49.6907 37.8523 44.3361C37.2097 38.5531 37.2097 32.5559 37.6381 24.6311C37.8523 22.4893 37.8523 20.99 38.2806 17.1347C38.709 12.2085 38.9232 9.20991 38.9232 6.42552L62.2692 13.4936C62.2692 16.278 62.4834 18.8482 62.9118 24.417C63.3402 30.1999 63.5543 33.1985 63.5543 36.6254C63.5543 40.6949 63.3402 44.3361 62.6976 47.763Z"/>
  </g>
  <g id="group1" transform="translate(48.4947, 21.6394)" fill="none">
   <path id="shape9" transform="translate(157.293, 27.2391)" fill="#ffffff" d="M1.6272 80.5477C21.3321 157.226 144.059 137.521 139.347 60.6286C133.779 -31.4705 -17.221 -13.6932 1.6272 80.5477"/>
   <path id="shape10" transform="translate(155.361, 25.0827)" fill="#000000" d="M143.421 62.5709C142.136 40.2957 132.283 22.9468 116.005 12.0235C101.441 2.171 82.1641 -1.68431 63.1018 0.671716C44.0394 3.24192 26.4763 11.8093 14.9104 25.3029C2.05938 40.2957 -2.86685 60.0006 1.63101 82.7041L3.55866 82.2758L1.63101 82.7041C21.7643 161.524 148.133 142.461 143.421 62.5709ZM5.48632 82.2758C1.20264 60.6432 5.91468 42.2234 17.909 28.3014C28.8324 15.6646 45.3245 7.31142 63.5301 4.95539C81.7358 2.59937 99.9414 6.2405 113.649 15.6646C128.856 25.9454 138.066 42.0092 139.351 63.2134C143.849 137.964 24.5487 155.955 5.48632 82.2758Z"/>
   <ellipse id="shape11" transform="translate(171.985, 72.6606)" rx="16.62066724532pt" ry="17.99144397766pt" cx="16.62066724532pt" cy="17.99144397766pt" fill="#000000"/>
   <ellipse id="shape12" transform="translate(197.259, 94.5074)" rx="3.94098294851pt" ry="4.62637128888pt" cx="3.94098294851pt" cy="4.62637128888pt" fill="#ffffff"/>
  </g>
  <g id="group2" transform="translate(129.123, 18.2506)" fill="none">
   <path id="shape13" transform="translate(250.254, 23.1477)" fill="#ffffff" d="M0.15431 73.6922C15.3614 161.722 159.293 138.376 138.517 49.7036C119.883 -29.9728 -4.9861 -7.91187 0.15431 73.6922"/>
   <path id="shape14" transform="translate(248.116, 21.1734)" fill="#000000" d="M142.582 51.2495C123.52 -30.7829 -4.99036 -8.29363 0.150057 75.8806L0.150057 76.0948C7.21812 117.646 44.2719 138.851 85.181 131.997C103.815 128.784 120.521 119.788 131.445 106.509C143.439 91.7302 147.723 72.6679 142.582 51.2495ZM128.232 103.939C117.951 116.361 102.316 124.929 84.5385 127.927C45.7712 134.353 11.0734 114.434 4.21955 75.4523C-0.492495 -3.79577 120.736 -25 138.727 52.1062C143.439 72.4537 139.584 90.2309 128.232 103.939Z"/>
   <ellipse id="shape15" transform="translate(265.401, 70.4952)" rx="16.27797307514pt" ry="17.99144397766pt" cx="16.27797307514pt" cy="17.99144397766pt" fill="#000000"/>
   <ellipse id="shape16" transform="translate(290.461, 92.342)" rx="3.76963587202pt" ry="4.62637128888pt" cx="3.76963587202pt" cy="4.62637128888pt" fill="#ffffff"/>
  </g>
  <g id="group3" transform="translate(99.8684, 70.5854)" fill="none">
   <path id="shape17" transform="translate(216.314, 104.387)" fill="#f6d2a2" d="M24.5837 2.35602C7.66319 3.85531 -6.04457 23.7744 2.73697 39.624C14.3029 60.614 40.2191 37.6964 56.2829 39.8382C74.9169 40.2666 90.124 59.5431 104.903 43.2651C121.395 25.2737 97.8346 7.71062 79.2006 0L24.5837 2.35602Z"/>
   <path id="shape18" transform="translate(214.4, 102.459)" fill="#231f20" d="M108.959 18.634C103.176 11.3517 93.1093 4.71204 82.186 0.214184L81.7576 0L81.3292 0L26.4981 2.14184C7.43579 3.85531 -6.27198 25.9162 2.93793 42.6226C6.57905 49.0481 11.5053 52.2609 18.145 52.6892C23.0712 52.9034 28.2116 51.8325 36.1364 49.0481C36.779 48.8339 37.6357 48.6197 38.7066 48.1914C49.4158 44.5502 53.6995 43.4793 57.9832 44.1219L58.1974 44.1219C63.3378 44.1219 67.6215 45.6212 75.7604 48.8339C84.7562 52.475 87.5405 53.546 92.0384 53.9743C98.2497 54.4027 103.604 52.2609 108.531 46.9063C116.884 37.6964 116.455 27.8439 108.959 18.634ZM105.318 43.9077C101.248 48.4056 97.1788 49.9048 92.2526 49.6907C88.3973 49.4765 85.8271 48.4056 77.2597 44.9786C68.6924 41.3375 63.9803 40.0524 58.4115 39.8382C53.0569 39.1956 48.5591 40.2666 37.2073 44.1219C36.1364 44.5502 35.2797 44.7644 34.6371 44.9786C19.0017 50.3332 11.5053 49.9048 6.36487 40.4807C-1.34575 26.5588 10.4344 7.71062 26.4981 6.21133L80.6867 4.06949C90.9675 8.35317 100.177 14.5645 105.532 21.2042C111.958 28.9148 112.172 36.6254 105.318 43.9077Z"/>
   <g id="group4" transform="translate(11.2852, -8.88178e-15)" fill="none">
    <path id="shape19" transform="translate(227.449, 81.3783)" fill="#000000" d="M61.0643 16.1546C54.4246 -8.26238 -1.26321 -4.62125 0.021895 24.5078C2.80629 46.1403 67.4898 40.3574 61.0643 16.1546Z"/>
   </g>
  </g>
 </g>
</svg>
